%YAML 1.1
%TAG !u! tag:unity3d.com,2011:
--- !u!114 &11400000
MonoBehaviour:
  m_ObjectHideFlags: 0
  m_CorrespondingSourceObject: {fileID: 0}
  m_PrefabInstance: {fileID: 0}
  m_PrefabAsset: {fileID: 0}
  m_GameObject: {fileID: 0}
  m_Enabled: 1
  m_EditorHideFlags: 0
  m_Script: {fileID: 11500000, guid: e2689dd6bca579a4a81f23eda516c537, type: 3}
  m_Name: LightExplosionLH
  m_EditorClassIdentifier: 
  _Info:
    Type: 4
    Damage: 20
    Lifetime: 5
  _RuneIdleParticle: {fileID: 8925513826219667427, guid: e56959864d4fa714dab88ae6bf1ac657,
    type: 3}
  _RuneHoldParticle: {fileID: 6935140727786277995, guid: 8974099cc2dc4024184cd4269354053e,
    type: 3}
  _RuneReleaseParticle: {fileID: 3611490607059491543, guid: c21d4dd645e0cd24fa44acbd0fb19cc5,
    type: 3}
  _RuneMagicPrefab: {fileID: 9157462046733799303, guid: efbe44fe5971d9a448687b3603546a10,
    type: 3}
  _RuneIdleParticleTimer: 0
  _RuneHoldParticleTimer: 0
  _RuneReleaseParticleTimer: 2
  _ActionCD: 8
  _LifeSpan: 2
  _Layers:
    serializedVersion: 2
    m_Bits: 311
  _RadiusIndicator: {fileID: 8933518752343351638, guid: 6eb1afade848208489813275a87b5647,
    type: 3}
