%YAML 1.1
%TAG !u! tag:unity3d.com,2011:
--- !u!21 &2100000
Material:
  serializedVersion: 6
  m_ObjectHideFlags: 0
  m_CorrespondingSourceObject: {fileID: 0}
  m_PrefabInstance: {fileID: 0}
  m_PrefabAsset: {fileID: 0}
  m_Name: FireBallTrail_Add
  m_Shader: {fileID: 4800000, guid: 3e4345218649cce4e85a190ea39f1588, type: 3}
  m_ShaderKeywords: 
  m_LightmapFlags: 4
  m_EnableInstancingVariants: 0
  m_DoubleSidedGI: 0
  m_CustomRenderQueue: -1
  stringTagMap: {}
  disabledShaderPasses: []
  m_SavedProperties:
    serializedVersion: 3
    m_TexEnvs:
    - _AlphaMask:
        m_Texture: {fileID: 2800000, guid: 5c1aeef3ede7463448f4394f34c8f064, type: 3}
        m_Scale: {x: 1, y: 1}
        m_Offset: {x: 0, y: 0}
    - _MainTex:
        m_Texture: {fileID: 2800000, guid: 821462bf41776fe4a8a1145bf1fa8512, type: 3}
        m_Scale: {x: 1, y: 1}
        m_Offset: {x: 0, y: 0}
    - _Noise:
        m_Texture: {fileID: 2800000, guid: d0f62442baa0edc44a7632637ea63f42, type: 3}
        m_Scale: {x: 1, y: 1}
        m_Offset: {x: 0, y: 0}
    m_Floats:
    - MyDstMode: 1
    - MySrcMode: 1
    - _AlphaMaskStrenght: 0
    - _Blend: 1
    - _Blend2: 1
    - _CircleAlpha: 1
    - _CircleRadius: 0
    - _CircleSmmoothness: 0.05
    - _CircleThickness: 0
    - _ColorWriteMask: 15
    - _ColorWriteMasks: 15
    - _Cull: 2
    - _Culls: 0
    - _Distortion: 0
    - _DstBlend: 0
    - _DstBlends: 1
    - _NoiseStrenght: 0.1
    - _Overlay: 0
    - _SrcBlend: 1
    - _SrcBlends: 1
    - _ZTest: 4
    - _ZTests: 4
    - _ZWrite: 1
    - _ZWrites: 0
    m_Colors:
    - _CircleColor: {r: 1.4980392, g: 1.4980392, b: 1.4980392, a: 1}
    - _NoiseDirection: {r: 0, g: 1, b: 0, a: 0}
