%YAML 1.1
%TAG !u! tag:unity3d.com,2011:
--- !u!687078895 &4343727234628468602
SpriteAtlas:
  m_ObjectHideFlags: 0
  m_CorrespondingSourceObject: {fileID: 0}
  m_PrefabInstance: {fileID: 0}
  m_PrefabAsset: {fileID: 0}
  m_Name: Circle
  m_EditorData:
    serializedVersion: 2
    textureSettings:
      serializedVersion: 2
      anisoLevel: 1
      compressionQuality: 50
      maxTextureSize: 2048
      textureCompression: 0
      filterMode: 1
      generateMipMaps: 0
      readable: 0
      crunchedCompression: 0
      sRGB: 1
    platformSettings: []
    packingSettings:
      serializedVersion: 2
      padding: 4
      blockOffset: 1
      allowAlphaSplitting: 0
      enableRotation: 1
      enableTightPacking: 1
    variantMultiplier: 1
    packables:
    - {fileID: 2800000, guid: 6eb01c72cd5d6da4899124a7fd81f86c, type: 3}
    - {fileID: 2800000, guid: 024928698085baf4da53665c41dc76dd, type: 3}
    - {fileID: 2800000, guid: 84eae1aabd82ab542a727373afdbe5d7, type: 3}
    - {fileID: 2800000, guid: da0b565494927c64c92594b8adb1fa03, type: 3}
    - {fileID: 2800000, guid: 3930dcd9cc475d749847328262d82405, type: 3}
    totalSpriteSurfaceArea: 1310720
    bindAsDefault: 1
  m_MasterAtlas: {fileID: 0}
  m_PackedSprites:
  - {fileID: 21300000, guid: 6eb01c72cd5d6da4899124a7fd81f86c, type: 3}
  - {fileID: 21300000, guid: da0b565494927c64c92594b8adb1fa03, type: 3}
  - {fileID: 21300000, guid: 024928698085baf4da53665c41dc76dd, type: 3}
  - {fileID: 21300000, guid: 3930dcd9cc475d749847328262d82405, type: 3}
  - {fileID: 21300000, guid: 84eae1aabd82ab542a727373afdbe5d7, type: 3}
  m_PackedSpriteNamesToIndex:
  - circle_01
  - circle_04
  - circle_02
  - circle_05
  - circle_03
  m_Tag: Circle
  m_IsVariant: 0
