%YAML 1.1
%TAG !u! tag:unity3d.com,2011:
--- !u!687078895 &4343727234628468602
SpriteAtlas:
  m_ObjectHideFlags: 0
  m_CorrespondingSourceObject: {fileID: 0}
  m_PrefabInstance: {fileID: 0}
  m_PrefabAsset: {fileID: 0}
  m_Name: Smoke
  m_EditorData:
    serializedVersion: 2
    textureSettings:
      serializedVersion: 2
      anisoLevel: 1
      compressionQuality: 50
      maxTextureSize: 2048
      textureCompression: 0
      filterMode: 1
      generateMipMaps: 0
      readable: 0
      crunchedCompression: 0
      sRGB: 1
    platformSettings: []
    packingSettings:
      serializedVersion: 2
      padding: 4
      blockOffset: 1
      allowAlphaSplitting: 0
      enableRotation: 0
      enableTightPacking: 0
    variantMultiplier: 1
    packables:
    - {fileID: 2800000, guid: 15c7f3ffd282a3542936b83074266c98, type: 3}
    - {fileID: 2800000, guid: ea87814339afcdd48aeda87a0e4311d3, type: 3}
    - {fileID: 2800000, guid: 105f7263a73d8ab4584138afe3303a0d, type: 3}
    - {fileID: 2800000, guid: 2c97892d2d3aeff49b524b2b8bbb66e3, type: 3}
    - {fileID: 2800000, guid: 0501947f264c8da4d83fb3f2988fd010, type: 3}
    - {fileID: 2800000, guid: ba344f75010b52a47a5e7704a2f514e0, type: 3}
    - {fileID: 2800000, guid: 6d752165c74a3794797cd560d4d51ead, type: 3}
    - {fileID: 2800000, guid: 08a183a9e5b0c8d4f85c9114659e92b3, type: 3}
    - {fileID: 2800000, guid: 09586b08598de6d45b6086ce0a4c5bf0, type: 3}
    - {fileID: 2800000, guid: 7203e01b98b7ebd4b9694bb9a12b8d70, type: 3}
    totalSpriteSurfaceArea: 2621440
    bindAsDefault: 1
  m_MasterAtlas: {fileID: 0}
  m_PackedSprites:
  - {fileID: 21300000, guid: ea87814339afcdd48aeda87a0e4311d3, type: 3}
  - {fileID: 21300000, guid: 105f7263a73d8ab4584138afe3303a0d, type: 3}
  - {fileID: 21300000, guid: 6d752165c74a3794797cd560d4d51ead, type: 3}
  - {fileID: 21300000, guid: ba344f75010b52a47a5e7704a2f514e0, type: 3}
  - {fileID: 21300000, guid: 09586b08598de6d45b6086ce0a4c5bf0, type: 3}
  - {fileID: 21300000, guid: 08a183a9e5b0c8d4f85c9114659e92b3, type: 3}
  - {fileID: 21300000, guid: 7203e01b98b7ebd4b9694bb9a12b8d70, type: 3}
  - {fileID: 21300000, guid: 2c97892d2d3aeff49b524b2b8bbb66e3, type: 3}
  - {fileID: 21300000, guid: 0501947f264c8da4d83fb3f2988fd010, type: 3}
  - {fileID: 21300000, guid: 15c7f3ffd282a3542936b83074266c98, type: 3}
  m_PackedSpriteNamesToIndex:
  - smoke_02
  - smoke_03
  - smoke_07
  - smoke_06
  - smoke_09
  - smoke_08
  - smoke_10
  - smoke_04
  - smoke_05
  - smoke_01
  m_Tag: Smoke
  m_IsVariant: 0
