%YAML 1.1
%TAG !u! tag:unity3d.com,2011:
--- !u!64 &3937817065482281200
MeshCollider:
  m_ObjectHideFlags: 0
  m_CorrespondingSourceObject: {fileID: 0}
  m_PrefabInstance: {fileID: 0}
  m_PrefabAsset: {fileID: 0}
  m_GameObject: {fileID: 3931661326903838928}
  m_Material: {fileID: 0}
  m_IsTrigger: 0
  m_Enabled: 1
  serializedVersion: 3
  m_Convex: 0
  m_CookingOptions: 14
  m_Mesh: {fileID: 4676429521910890857, guid: c2e9db551aea43a40938aa8910f7b5c6, type: 3}
--- !u!1001 &5022072356293693913
PrefabInstance:
  m_ObjectHideFlags: 0
  serializedVersion: 2
  m_Modification:
    m_TransformParent: {fileID: 0}
    m_Modifications:
    - target: {fileID: -927199367670048503, guid: c2e9db551aea43a40938aa8910f7b5c6,
        type: 3}
      propertyPath: m_Name
      value: Grillete-Cadena Variant
      objectReference: {fileID: 0}
    - target: {fileID: -4216859302048453862, guid: c2e9db551aea43a40938aa8910f7b5c6,
        type: 3}
      propertyPath: m_LocalPosition.x
      value: 0
      objectReference: {fileID: 0}
    - target: {fileID: -4216859302048453862, guid: c2e9db551aea43a40938aa8910f7b5c6,
        type: 3}
      propertyPath: m_LocalPosition.y
      value: 0
      objectReference: {fileID: 0}
    - target: {fileID: -4216859302048453862, guid: c2e9db551aea43a40938aa8910f7b5c6,
        type: 3}
      propertyPath: m_LocalPosition.z
      value: 0
      objectReference: {fileID: 0}
    - target: {fileID: -4216859302048453862, guid: c2e9db551aea43a40938aa8910f7b5c6,
        type: 3}
      propertyPath: m_LocalRotation.x
      value: 0
      objectReference: {fileID: 0}
    - target: {fileID: -4216859302048453862, guid: c2e9db551aea43a40938aa8910f7b5c6,
        type: 3}
      propertyPath: m_LocalRotation.y
      value: -0
      objectReference: {fileID: 0}
    - target: {fileID: -4216859302048453862, guid: c2e9db551aea43a40938aa8910f7b5c6,
        type: 3}
      propertyPath: m_LocalRotation.z
      value: -0
      objectReference: {fileID: 0}
    - target: {fileID: -4216859302048453862, guid: c2e9db551aea43a40938aa8910f7b5c6,
        type: 3}
      propertyPath: m_LocalRotation.w
      value: 1
      objectReference: {fileID: 0}
    - target: {fileID: -4216859302048453862, guid: c2e9db551aea43a40938aa8910f7b5c6,
        type: 3}
      propertyPath: m_RootOrder
      value: 0
      objectReference: {fileID: 0}
    - target: {fileID: -4216859302048453862, guid: c2e9db551aea43a40938aa8910f7b5c6,
        type: 3}
      propertyPath: m_LocalEulerAnglesHint.x
      value: 0
      objectReference: {fileID: 0}
    - target: {fileID: -4216859302048453862, guid: c2e9db551aea43a40938aa8910f7b5c6,
        type: 3}
      propertyPath: m_LocalEulerAnglesHint.y
      value: 0
      objectReference: {fileID: 0}
    - target: {fileID: -4216859302048453862, guid: c2e9db551aea43a40938aa8910f7b5c6,
        type: 3}
      propertyPath: m_LocalEulerAnglesHint.z
      value: 0
      objectReference: {fileID: 0}
    - target: {fileID: -4216859302048453862, guid: c2e9db551aea43a40938aa8910f7b5c6,
        type: 3}
      propertyPath: m_LocalScale.y
      value: 1.5
      objectReference: {fileID: 0}
    - target: {fileID: -4216859302048453862, guid: c2e9db551aea43a40938aa8910f7b5c6,
        type: 3}
      propertyPath: m_LocalScale.x
      value: 1.5
      objectReference: {fileID: 0}
    - target: {fileID: -4216859302048453862, guid: c2e9db551aea43a40938aa8910f7b5c6,
        type: 3}
      propertyPath: m_LocalScale.z
      value: 1.5
      objectReference: {fileID: 0}
    - target: {fileID: -1504981713932161579, guid: c2e9db551aea43a40938aa8910f7b5c6,
        type: 3}
      propertyPath: m_Materials.Array.data[0]
      value: 
      objectReference: {fileID: 2100000, guid: 5ce22c6f0afa5f44c97b8d6125e2d27e, type: 2}
    m_RemovedComponents: []
  m_SourcePrefab: {fileID: 100100000, guid: c2e9db551aea43a40938aa8910f7b5c6, type: 3}
--- !u!1 &3931661326903838928 stripped
GameObject:
  m_CorrespondingSourceObject: {fileID: -927199367670048503, guid: c2e9db551aea43a40938aa8910f7b5c6,
    type: 3}
  m_PrefabInstance: {fileID: 5022072356293693913}
  m_PrefabAsset: {fileID: 0}
