%YAML 1.1
%TAG !u! tag:unity3d.com,2011:
--- !u!64 &3973101715956841406
MeshCollider:
  m_ObjectHideFlags: 0
  m_CorrespondingSourceObject: {fileID: 0}
  m_PrefabInstance: {fileID: 0}
  m_PrefabAsset: {fileID: 0}
  m_GameObject: {fileID: 6493675451789157566}
  m_Material: {fileID: 0}
  m_IsTrigger: 0
  m_Enabled: 1
  serializedVersion: 3
  m_Convex: 0
  m_CookingOptions: 14
  m_Mesh: {fileID: -6428178046170353309, guid: a7964071d030afa4d97d8d2ce8fd83c5, type: 3}
--- !u!1001 &2972312521150463415
PrefabInstance:
  m_ObjectHideFlags: 0
  serializedVersion: 2
  m_Modification:
    m_TransformParent: {fileID: 0}
    m_Modifications:
    - target: {fileID: -927199367670048503, guid: a7964071d030afa4d97d8d2ce8fd83c5,
        type: 3}
      propertyPath: m_Name
      value: PlacaMetal2 Variant
      objectReference: {fileID: 0}
    - target: {fileID: -4216859302048453862, guid: a7964071d030afa4d97d8d2ce8fd83c5,
        type: 3}
      propertyPath: m_LocalPosition.x
      value: 0
      objectReference: {fileID: 0}
    - target: {fileID: -4216859302048453862, guid: a7964071d030afa4d97d8d2ce8fd83c5,
        type: 3}
      propertyPath: m_LocalPosition.y
      value: 0
      objectReference: {fileID: 0}
    - target: {fileID: -4216859302048453862, guid: a7964071d030afa4d97d8d2ce8fd83c5,
        type: 3}
      propertyPath: m_LocalPosition.z
      value: 0
      objectReference: {fileID: 0}
    - target: {fileID: -4216859302048453862, guid: a7964071d030afa4d97d8d2ce8fd83c5,
        type: 3}
      propertyPath: m_LocalRotation.x
      value: 0
      objectReference: {fileID: 0}
    - target: {fileID: -4216859302048453862, guid: a7964071d030afa4d97d8d2ce8fd83c5,
        type: 3}
      propertyPath: m_LocalRotation.y
      value: -0
      objectReference: {fileID: 0}
    - target: {fileID: -4216859302048453862, guid: a7964071d030afa4d97d8d2ce8fd83c5,
        type: 3}
      propertyPath: m_LocalRotation.z
      value: -0
      objectReference: {fileID: 0}
    - target: {fileID: -4216859302048453862, guid: a7964071d030afa4d97d8d2ce8fd83c5,
        type: 3}
      propertyPath: m_LocalRotation.w
      value: 1
      objectReference: {fileID: 0}
    - target: {fileID: -4216859302048453862, guid: a7964071d030afa4d97d8d2ce8fd83c5,
        type: 3}
      propertyPath: m_RootOrder
      value: 0
      objectReference: {fileID: 0}
    - target: {fileID: -4216859302048453862, guid: a7964071d030afa4d97d8d2ce8fd83c5,
        type: 3}
      propertyPath: m_LocalEulerAnglesHint.x
      value: 0
      objectReference: {fileID: 0}
    - target: {fileID: -4216859302048453862, guid: a7964071d030afa4d97d8d2ce8fd83c5,
        type: 3}
      propertyPath: m_LocalEulerAnglesHint.y
      value: 0
      objectReference: {fileID: 0}
    - target: {fileID: -4216859302048453862, guid: a7964071d030afa4d97d8d2ce8fd83c5,
        type: 3}
      propertyPath: m_LocalEulerAnglesHint.z
      value: 0
      objectReference: {fileID: 0}
    - target: {fileID: -1504981713932161579, guid: a7964071d030afa4d97d8d2ce8fd83c5,
        type: 3}
      propertyPath: m_Materials.Array.data[0]
      value: 
      objectReference: {fileID: 2100000, guid: ad9bebc8004dbe947ae423f51a4dc91a, type: 2}
    m_RemovedComponents: []
  m_SourcePrefab: {fileID: 100100000, guid: a7964071d030afa4d97d8d2ce8fd83c5, type: 3}
--- !u!1 &6493675451789157566 stripped
GameObject:
  m_CorrespondingSourceObject: {fileID: -927199367670048503, guid: a7964071d030afa4d97d8d2ce8fd83c5,
    type: 3}
  m_PrefabInstance: {fileID: 2972312521150463415}
  m_PrefabAsset: {fileID: 0}
