%YAML 1.1
%TAG !u! tag:unity3d.com,2011:
--- !u!64 &7350574557843286836
MeshCollider:
  m_ObjectHideFlags: 0
  m_CorrespondingSourceObject: {fileID: 0}
  m_PrefabInstance: {fileID: 0}
  m_PrefabAsset: {fileID: 0}
  m_GameObject: {fileID: 3105460451743306511}
  m_Material: {fileID: 0}
  m_IsTrigger: 0
  m_Enabled: 1
  serializedVersion: 3
  m_Convex: 0
  m_CookingOptions: 14
  m_Mesh: {fileID: 6291659073897506015, guid: e89b6bd2e1f0b1c4f89cff47dc144c88, type: 3}
--- !u!1001 &6357150581670300166
PrefabInstance:
  m_ObjectHideFlags: 0
  serializedVersion: 2
  m_Modification:
    m_TransformParent: {fileID: 0}
    m_Modifications:
    - target: {fileID: -927199367670048503, guid: e89b6bd2e1f0b1c4f89cff47dc144c88,
        type: 3}
      propertyPath: m_Name
      value: "Mand\xEDbula2 Variant"
      objectReference: {fileID: 0}
    - target: {fileID: -4216859302048453862, guid: e89b6bd2e1f0b1c4f89cff47dc144c88,
        type: 3}
      propertyPath: m_LocalPosition.x
      value: 0
      objectReference: {fileID: 0}
    - target: {fileID: -4216859302048453862, guid: e89b6bd2e1f0b1c4f89cff47dc144c88,
        type: 3}
      propertyPath: m_LocalPosition.y
      value: 0
      objectReference: {fileID: 0}
    - target: {fileID: -4216859302048453862, guid: e89b6bd2e1f0b1c4f89cff47dc144c88,
        type: 3}
      propertyPath: m_LocalPosition.z
      value: 0
      objectReference: {fileID: 0}
    - target: {fileID: -4216859302048453862, guid: e89b6bd2e1f0b1c4f89cff47dc144c88,
        type: 3}
      propertyPath: m_LocalRotation.x
      value: 0
      objectReference: {fileID: 0}
    - target: {fileID: -4216859302048453862, guid: e89b6bd2e1f0b1c4f89cff47dc144c88,
        type: 3}
      propertyPath: m_LocalRotation.y
      value: -0
      objectReference: {fileID: 0}
    - target: {fileID: -4216859302048453862, guid: e89b6bd2e1f0b1c4f89cff47dc144c88,
        type: 3}
      propertyPath: m_LocalRotation.z
      value: -0
      objectReference: {fileID: 0}
    - target: {fileID: -4216859302048453862, guid: e89b6bd2e1f0b1c4f89cff47dc144c88,
        type: 3}
      propertyPath: m_LocalRotation.w
      value: 1
      objectReference: {fileID: 0}
    - target: {fileID: -4216859302048453862, guid: e89b6bd2e1f0b1c4f89cff47dc144c88,
        type: 3}
      propertyPath: m_RootOrder
      value: 0
      objectReference: {fileID: 0}
    - target: {fileID: -4216859302048453862, guid: e89b6bd2e1f0b1c4f89cff47dc144c88,
        type: 3}
      propertyPath: m_LocalEulerAnglesHint.x
      value: 0
      objectReference: {fileID: 0}
    - target: {fileID: -4216859302048453862, guid: e89b6bd2e1f0b1c4f89cff47dc144c88,
        type: 3}
      propertyPath: m_LocalEulerAnglesHint.y
      value: 0
      objectReference: {fileID: 0}
    - target: {fileID: -4216859302048453862, guid: e89b6bd2e1f0b1c4f89cff47dc144c88,
        type: 3}
      propertyPath: m_LocalEulerAnglesHint.z
      value: 0
      objectReference: {fileID: 0}
    - target: {fileID: -4216859302048453862, guid: e89b6bd2e1f0b1c4f89cff47dc144c88,
        type: 3}
      propertyPath: m_LocalScale.x
      value: 2
      objectReference: {fileID: 0}
    - target: {fileID: -4216859302048453862, guid: e89b6bd2e1f0b1c4f89cff47dc144c88,
        type: 3}
      propertyPath: m_LocalScale.y
      value: 2
      objectReference: {fileID: 0}
    - target: {fileID: -4216859302048453862, guid: e89b6bd2e1f0b1c4f89cff47dc144c88,
        type: 3}
      propertyPath: m_LocalScale.z
      value: 2
      objectReference: {fileID: 0}
    - target: {fileID: -1504981713932161579, guid: e89b6bd2e1f0b1c4f89cff47dc144c88,
        type: 3}
      propertyPath: m_Materials.Array.data[0]
      value: 
      objectReference: {fileID: 2100000, guid: 04f62400671767e4ab7d4250e8bbceb6, type: 2}
    m_RemovedComponents: []
  m_SourcePrefab: {fileID: 100100000, guid: e89b6bd2e1f0b1c4f89cff47dc144c88, type: 3}
--- !u!1 &3105460451743306511 stripped
GameObject:
  m_CorrespondingSourceObject: {fileID: -927199367670048503, guid: e89b6bd2e1f0b1c4f89cff47dc144c88,
    type: 3}
  m_PrefabInstance: {fileID: 6357150581670300166}
  m_PrefabAsset: {fileID: 0}
