%YAML 1.1
%TAG !u! tag:unity3d.com,2011:
--- !u!21 &2100000
Material:
  serializedVersion: 6
  m_ObjectHideFlags: 0
  m_CorrespondingSourceObject: {fileID: 0}
  m_PrefabInstance: {fileID: 0}
  m_PrefabAsset: {fileID: 0}
  m_Name: Skybox
  m_Shader: {fileID: 4800000, guid: 4aa19b70fb07283458e24ec87db90405, type: 3}
  m_ShaderKeywords: _STARS_ON _SUNDISK_NONE
  m_LightmapFlags: 4
  m_EnableInstancingVariants: 0
  m_DoubleSidedGI: 0
  m_CustomRenderQueue: -1
  stringTagMap: {}
  disabledShaderPasses: []
  m_SavedProperties:
    serializedVersion: 3
    m_TexEnvs:
    - _MainTex:
        m_Texture: {fileID: 0}
        m_Scale: {x: 1, y: 1}
        m_Offset: {x: 0, y: 0}
    m_Floats:
    - _AtmosphereThickness: 1
    - _Exposure: 1
    - _Stars: 1
    - _StarsDensity: 0.015
    - _StarsSize: 0.0112
    - _SunDisk: 0
    - _SunSize: 0.04
    m_Colors:
    - _GroundColor: {r: 0.369, g: 0.349, b: 0.341, a: 1}
    - _SkyTint: {r: 0.7735849, g: 0.07662869, b: 0.46707, a: 1}
    - _StarsHash: {r: 641, g: -113, b: 271, a: 1117}
    - _Tint: {r: 0.5, g: 0.5, b: 0.5, a: 0.5}
