%YAML 1.1
%TAG !u! tag:unity3d.com,2011:
--- !u!114 &11400000
MonoBehaviour:
  m_ObjectHideFlags: 0
  m_CorrespondingSourceObject: {fileID: 0}
  m_PrefabInstance: {fileID: 0}
  m_PrefabAsset: {fileID: 0}
  m_GameObject: {fileID: 0}
  m_Enabled: 1
  m_EditorHideFlags: 0
  m_Script: {fileID: 11500000, guid: fa973a833d39ac84287bb99fb516ebd6, type: 3}
  m_Name: FireTorrentRuneLH
  m_EditorClassIdentifier: 
  _Info:
    Type: 1
    Damage: 20
    Lifetime: 10
  _RuneIdleParticle: {fileID: 1123476306592823068, guid: afb9b880a112e3d41bc48dc4c19f5206,
    type: 3}
  _RuneHoldParticle: {fileID: 8877729921434996583, guid: 5cb53e89adaa3cb469ddb6a399e44792,
    type: 3}
  _RuneReleaseParticle: {fileID: 2578417764282211708, guid: 0e9cc9215974b8d4289e97115aa2b892,
    type: 3}
  _RuneMagicPrefab: {fileID: 1964720541832331230, guid: 75f45205371309a45986e3796f9c7a68,
    type: 3}
  _RuneIdleParticleTimer: 0
  _RuneHoldParticleTimer: 0
  _RuneReleaseParticleTimer: 3
  _ActionCD: 3
  _Distance: 10
  _Layers:
    serializedVersion: 2
    m_Bits: 55
