%YAML 1.1
%TAG !u! tag:unity3d.com,2011:
--- !u!21 &2100000
Material:
  serializedVersion: 6
  m_ObjectHideFlags: 0
  m_CorrespondingSourceObject: {fileID: 0}
  m_PrefabInstance: {fileID: 0}
  m_PrefabAsset: {fileID: 0}
  m_Name: CrackTorrent
  m_Shader: {fileID: 4800000, guid: 3e4345218649cce4e85a190ea39f1588, type: 3}
  m_ShaderKeywords: 
  m_LightmapFlags: 4
  m_EnableInstancingVariants: 0
  m_DoubleSidedGI: 0
  m_CustomRenderQueue: -1
  stringTagMap: {}
  disabledShaderPasses: []
  m_SavedProperties:
    serializedVersion: 3
    m_TexEnvs:
    - _AlphaMask:
        m_Texture: {fileID: 0}
        m_Scale: {x: 1, y: 1}
        m_Offset: {x: 0, y: 0}
    - _MainTex:
        m_Texture: {fileID: 2800000, guid: d4657f528cbd4e14ba92d95119e319c0, type: 3}
        m_Scale: {x: 1, y: 1}
        m_Offset: {x: 0, y: 0}
    - _Noise:
        m_Texture: {fileID: 0}
        m_Scale: {x: 0.5, y: 0.5}
        m_Offset: {x: 0, y: 0}
    m_Floats:
    - MyDstMode: 1
    - MySrcMode: 1
    - _Alpha: 1
    - _AlphaMaskStrenght: 0
    - _Alphax: 1
    - _CircleAlpha: 1
    - _CircleRadius: 0
    - _CircleSmmoothness: 0.05
    - _CircleThickness: 0
    - _ColorWriteMasks: 15
    - _Culls: 0
    - _Distortion: 1
    - _DstBlends: 10
    - _NoiseStrenght: 0
    - _SrcBlends: 5
    - _ZTests: 0
    - _ZWrites: 0
    m_Colors:
    - _CircleColor: {r: 1, g: 1, b: 1, a: 1}
    - _Color: {r: 2, g: 2, b: 2, a: 1}
    - _NoiseDirection: {r: 0, g: -0.5, b: 0, a: 0}
    - _TextureDirection: {r: 0, g: 0, b: 0, a: 0}
